numero;sexe;morphe;origine;date;id
PL1;F;silvana;montagne des chevaux;21/02/2021;2102A
PL2;F;silvana;montagne des chevaux;21/02/2021;2102B
PL3;F;numata;montagne des chevaux;21/02/2021;2102C
PL4;F;numata;montagne des chevaux;21/02/2021;2102D
PL5;F;numata;montagne des chevaux;21/02/2021;2102E
PL6;M;numata;montagne des chevaux;21/02/2021;2102F
PL7;M;numata;montagne des chevaux;21/02/2021;2102G
PL8;M;silvana;Mataroni;17/03/2021;1703A
PL9;F;silvana;elevage;24/03/2021;2403A
PL10;F;silvana;elevage;24/03/2021;2403B
PL11;M;silvana;elevage;24/03/2021;2403C
PL12;F;silvana;elevage;24/03/2021;2403D
PL13;F;silvana;elevage;24/03/2021;2403E
PL14;F;silvana;elevage;24/03/2021;2403F
PL15;F;silvana;elevage;24/03/2021;2403G
PL16;F;silvana;elevage;24/03/2021;2403H
PL17;M;silvana;elevage;24/03/2021;2403I
PL18;F;silvana;elevage;25/03/2021;2503A
PL19;F;numata;elevage;25/03/2021;2503B
PL20;F;numata;elevage;26/03/2021;2603A
PL21;M;numata;elevage;26/03/2021;2603B
PL22;F;silvana;elevage;27/03/2021;2703A
PL23;F;numata;elevage;27/03/2021;2703B
PL24;M;silvana;elevage;27/03/2021;2703C
PL25;F;silvana;elevage;27/03/2021;2703D
PL26;F;silvana;elevage;27/03/2021;2703E
PL27;M;numata;elevage;27/03/2021;2703F
PL28;M;numata;elevage;27/03/2021;2703G
PL29;F;numata;elevage;27/03/2021;2703H
PL30;M;numata;elevage;27/03/2021;2703I
PL31;M;silvana;elevage;29/03/2021;2903A
PL32;M;numata;elevage;29/03/2021;2903B
PL33;M;silvana;elevage;29/03/2021;2903C
PL34;F;silvana;elevage;30/03/2021;3003A
PL35;F;silvana;elevage;30/03/2021;3003B
PL36;M;silvana;elevage;31/03/2021;3103A
PL37;M;silvana;elevage;31/03/2021;3103B
PL38;F;silvana;elevage;31/03/2021;3103C
PL39;F;silvana;elevage;31/03/2021;3103D
PL40;F;numata;elevage;31/03/2021;3103E
PL41;M;numata;elevage;31/03/2021;3103F
PL42;M;silvana;elevage;01/04/2021;0104A
PL43;F;silvana;elevage;01/04/2021;0104B
PL44;F;silvana;elevage;01/04/2021;0104C
PL45;F;silvana;elevage;01/04/2021;0104D
PL46;F;silvana;elevage;01/04/2021;0104E
PL47;F;silvana;elevage;02/04/2021;0204A
PL48;F;silvana;elevage;02/04/2021;0204B
PL49;M;numata;elevage;02/04/2021;0204C
PL50;F;silvana;elevage;02/04/2021;0204E
PL51;F;silvana;elevage;02/04/2021;0204F
PL52;M;silvana;elevage;06/04/2021;0604A
PL53;F;silvana;elevage;06/04/2021;0604B
PL54;F;silvana;elevage;06/04/2021;0604D
PL55;M;silvana;elevage;06/04/2021;0604E
PL56;M;numata;elevage;08/04/2021;0804A
PL57;M;silvana;elevage;08/04/2021;0804B
PL58;M;silvana;elevage;08/04/2021;0804C
PL59;F;numata;elevage;08/04/2021;0804D
PL60;M;silvana;elevage;08/04/2021;0804E
PL61;F;silvana;elevage;12/04/2021;1204A
PL62;M;silvana;elevage;12/04/2021;1204B
PL63;F;silvana;elevage;12/04/2021;1204C
PL64;M;silvana;elevage;12/04/2021;1204D
PL65;M;silvana;elevage;12/04/2021;1204E
PL66;M;numata;elevage;12/04/2021;1204F
PL67;F;numata;elevage;15/04/2021;1504A
PL68;M;silvana;elevage;15/04/2021;1504B
PL69;M;silvana;elevage;15/04/2021;1504C
PL70;M;silvana;elevage;18/04/2021;1804A
PL71;F;silvana;elevage;18/04/2021;1804B
PL72;F;numata;elevage;18/04/2021;1804C
PL73;F;numata;elevage;18/04/2021;1804D
PL74;M;numata;elevage;19/04/2021;1904A
PL75;F;silvana;elevage;19/04/2021;1904B
PL76;M;silvana;elevage;19/04/2021;1904C
PL77;M;numata;elevage;19/04/2021;1904D
PL78;M;numata;elevage;19/04/2021;1904E
PL79;M;numata;elevage;19/04/2021;1904F
PL80;M;numata;elevage;20/04/2021;2004A
PL81;F;numata;elevage;20/04/2021;2004B
PL82;M;numata;elevage;20/04/2021;2004C
PL83;F;silvana;elevage;20/04/2021;2004D
PL84;M;silvana;elevage;20/04/2021;2004E
PL85;M;silvana;elevage;20/04/2021;2004F
PL86;F;numata;elevage;20/04/2021;2004G
PL87;M;silvana;elevage;20/04/2021;2004H
PL88;F;silvana;elevage;20/04/2021;2004I
PL89;M;numata;elevage;21/04/2021;2104A
PL90;M;silvana;elevage;21/04/2021;2104B
PL91;F;silvana;elevage;21/04/2021;2104C
PL92;M;numata;elevage;21/04/2021;2104D
PL93;F;silvana;elevage;21/04/2021;2104E
PL94;F;silvana;elevage;21/04/2021;2104F
PL95;F;silvana;elevage;21/04/2021;2104G
PL96;M;numata;elevage;21/04/2021;2104H
PL97;M;silvana;elevage;21/04/2021;2104I
PL98;F;numata;elevage;22/04/2021;2204A
PL99;M;silvana;elevage;22/04/2021;2204B
PL100;M;silvana;elevage;22/04/2021;2204C
PL101;M;silvana;elevage;22/04/2021;2204D
PL102;M;silvana;elevage;26/04/2021;2604A
PL103;F;silvana;elevage;26/04/2021;2604B
PL104;M;silvana;elevage;26/04/2021;2604C
PL105;M;numata;elevage;26/04/2021;2604D
PL106;F;numata;elevage;26/04/2021;2604E
PL107;F;numata;elevage;26/04/2021;2604F
PL108;F;numata;elevage;26/04/2021;2604G
PL109;M;numata;elevage;26/04/2021;2604H
PL110;F;numata;elevage;26/04/2021;2604I
PL111;M;silvana;elevage;26/04/2021;2604J
PL112;M;silvana;elevage;26/04/2021;2604K
PL113;F;silvana;elevage;26/04/2021;2604L
PL114;F;silvana;elevage;26/04/2021;2604M
PL115;M;numata;elevage;26/04/2021;2604N
PL116;F;silvana;elevage;26/04/2021;2604O
PL117;M;silvana;elevage;26/04/2021;2604P
PL118;F;silvana;elevage;26/04/2021;2604Q
PL119;F;silvana;elevage;26/04/2021;2604R
PL120;M;numata;elevage;26/04/2021;2604S
PL121;M;silvana;elevage;26/04/2021;2604T
PL122;F;numata;elevage;26/04/2021;2604U
PL123;F;silvana;elevage;26/04/2021;2604V
PL124;F;silvana;elevage;26/04/2021;2604W
PL125;F;silvana;elevage;26/04/2021;2604X
PL126;M;numata;elevage;27/04/2021;2704A
PL127;M;silvana;elevage;27/04/2021;2704B
PL128;M;numata;elevage;27/04/2021;2704C
PL129;F;silvana;elevage;27/04/2021;2704D
PL130;F;silvana;elevage;27/04/2021;2704E
PL131;M;numata;elevage;27/04/2021;2704F
PL132;M;numata;elevage;27/04/2021;2704G
PL133;F;numata;elevage;27/04/2021;2704H 
PL134;M;silvana;elevage;27/04/2021;2704I
PL135;F;silvana;elevage;27/04/2021;2704J
PL136;F;silvana;elevage;27/04/2021;2704K
PL137;F;silvana;elevage;27/04/2021;2704L
PL138;M;silvana;elevage;28/04/2021;2804A 
PL139;M;numata;elevage;28/04/2021;2804B
PL140;M;numata;elevage;28/04/2021;2804C
PL141;F;numata;elevage;28/04/2021;2804D
PL142;F;numata;elevage;28/04/2021;2804E
PL143;M;silvana;elevage;28/04/2021;2804F
PL144;M;numata;elevage;28/04/2021;2804G
PL145;M;silvana;elevage;28/04/2021;2804H
PL146;F;silvana;elevage;28/04/2021;2804I
PL147;F;numata;elevage;28/04/2021;2804J
PL148;M;numata;elevage;28/04/2021;2804K
PL149;F;numata;elevage;30/04/2021;3004A
PL150;F;silvana;elevage;30/04/2021;3004B
PL151;F;silvana;elevage;30/04/2021;3004C
PL152;M;silvana;elevage;30/04/2021;3004D
PL153;F;silvana;elevage;30/04/2021;3004E
PL154;M;numata;elevage;30/04/2021;3004F
PL155;M;numata;elevage;30/04/2021;3004G
PL156;M;numata;elevage;30/04/2021;3004H
PL157;M;numata;elevage;30/04/2021;3004I
PL158;M;silvana;elevage;30/04/2021;3004J
PL159;F;silvana;elevage;30/04/2021;3004K
PL160;M;silvana;elevage;30/04/2021;3004L
PL161;M;silvana;elevage;30/04/2021;3004M
PL162;M;numata;elevage;30/04/2021;3004N
PL163;M;silvana;elevage;04/05/2021;0405A
PL164;F;silvana;elevage;04/05/2021;0405B
PL165;M;silvana;elevage;04/05/2021;0405C
PL166;F;numata;elevage;04/05/2021;0405D
PL167;M;silvana;elevage;04/05/2021;0405E
PL168;F;silvana;elevage;04/05/2021;0405F
PL169;F;numata;elevage;04/05/2021;0405G
PL170;M;silvana;elevage;04/05/2021;0405H
PL171;F;numata;elevage;04/05/2021;0405I
PL172;M;numata;elevage;04/05/2021;0405J
PL173;M;silvana;elevage;04/05/2021;0405K
PL174;M;silvana;elevage;04/05/2021;04045L
PL175;F;silvana;elevage;10/05/2021;1005A
PL176;F;silvana;elevage;10/05/2021;1005B
PL177;M;numata;elevage;10/05/2021;1005C
PL178;F;silvana;elevage;10/05/2021;1005D
PL179;F;numata;elevage;10/05/2021;1005E
PL180;M;silvana;elevage;10/05/2021;1005F
PL181;F;numata;elevage;10/05/2021;1005G
PL182;M;silvana;elevage;10/05/2021;1005H
PL183;F;numata;elevage;10/05/2021;1005I
PL184;F;silvana;elevage;10/05/2021;1005J
PL185;M;numata;elevage;10/05/2021;1005K
PL186;M;silvana;elevage;13/05/2021;1305A
PL187;M;silvana;elevage;13/05/2021;1305B
PL188;F;numata;elevage;13/05/2021;1305C
PL189;F;silvana;elevage;13/05/2021;1305D
PL190;M;silvana;elevage;13/05/2021;1305E
PL191;F;silvana;elevage;13/05/2021;1305F
PL192;M;silvana;elevage;13/05/2021;1305G
PL193;F;silvana;elevage;13/05/2021;1305H
PL194;M;numata;elevage;13/05/2021;1305I
PL195;M;numata;elevage;13/05/2020;1305J
PL196;M;silvana;elevage;17/05/2021;1705A
PL197;M;silvana;elevage;17/05/2021;1705B
PL198;F;silvana;elevage;17/05/2021;1705C
PL199;F;silvana;elevage;17/05/2021;1705D
PL200;M;silvana;elevage;17/05/2021;1705E
PL201;F;numata;elevage;20/05/2021;2005A
PL202;M;silvana;elevage;20/05/2021;2005B
PL203;M;silvana;elevage;20/05/2021;2005C
PL204;M;silvana;elevage;21/05/2021;2105A
PL205;M;silvana;elevage;21/05/2021;2105B
PL206;M;numata;elevage;21/05/2021;2105C
PL207;F;numata;montagne des chevaux;22/05/2021;2205MC1
PL208;F;numata;montagne des chevaux;22/05/2021;2205MC2
PL209;M;silvana;elevage;24/05/2021;2405A
PL210;F;silvana;elevage;24/05/2021;2405B
PL211;M;numata;elevage;24/05/2021;2405C
PL212;M;numata;elevage;24/05/2021;2405C
PL213;F;silvana;elevage;26/05/2021;2605A
PL214;M;numata;elevage;26/05/2021;2605B
PL215;F;silvana;elevage;26/05/2021;2605C
PL216;M;numata;elevage;26/05/2021;2605D
PL217;M;silvana;elevage;26/05/2021;2605E
PL218;F;numata;elevage;27/05/2021;2705A
PL219;M;silvana;elevage;27/05/2021;2705B
PL220;F;numata;elevage;27/05/2021;2705C
PL221;F;numata;elevage;27/05/2021;2705D
PL222;M;silvana;kaw;29/05/2021;2905Ka
PL223;M;numata;elevage;01/06/2021;0106A
PL224;F;numata;elevage;01/06/2021;0105B
PL225;F;numata;elevage;01/06/2021;0105C
PL226;F;silvana;kaw;02/06/2021;0206Ka1
PL227;F;numata;kaw;02/06/2021;0206Ka2
PL228;F;numata;kaw;02/06/2021;0206Ka3
PL229;F;silvana;kaw;02/06/2021;0206Ka4
PL230;F;silvana;kaw;03/06/2021;0306Ka1
PL231;M;numata;kaw;03/06/2021;0306Ka2
PL232;F;numata;elevage;03/06/2021;0306A
PL233;F;numata;elevage;03/06/2021;0306B
PL234;F;silvana;elevage;03/06/2021;0306C
PL235;M;silvana;elevage;05/06/2021;0506A
PL236;F;numata;elevage;05/06/2021;0506B
PL237;F;silvana;elevage;05/06/2021;0506C
PL238;M;numata;elevage;05/06/2021;0506D
PL239;F;silvana;kaw;06/06/2021;0606Ka1
PL240;F;silvana;kaw;06/06/2021;0606Ka2
PL241;F;numata;elevage;08/06/2021;0806A
PL242;F;numata;elevage;08/06/2021;0806B
PL243;F;numata;kaw;08/06/2021;0806Ka1
PL244;F;numata;kaw;08/06/2021;0806Ka2
PL245;M;silvana;elevage;09/06/2021;0906A
PL246;F;numata;elevage;09/06/2021;0906B
PL247;M;numata;elevage;10/06/2021;1006A
PL248;F;numata;kaw;10/06/2021;1006Ka1
PL249;F;numata;kaw;10/06/2021;1006Ka2
PL250;M;silvana;kaw;10/06/2021;1006Ka3
PL251;F;silvana;elevage;11/06/2021;1106A
PL252;M;numata;elevage;11/06/2021;1106B
PL253;M;silvana;elevage;11/06/2021;1106C
PL254;M;silvana;elevage;11/06/2021;1106D
PL255;F;silvana;elevage;11/06/2021;1106E
PL256;M;numata;elevage;11/06/2021;1106F
PL257;M;silvana;elevage;12/06/2021;1206A
PL258;M;numata;elevage;13/06/2021;1306A
PL259;F;numata;elevage;13/06/2021;1306B
PL260;M;numata;elevage;13/06/2021;1306C
PL261;M;silvana;elevage;13/06/2021;1306D
PL262;M;numata;elevage;15/06/2021;1506A
PL263;M;numata;elevage;15/06/2021;1506B
PL264;F;silvana;elevage;15/06/2021;1506C
PL265;F;silvana;elevage;15/06/2021;1506D
PL266;F;silvana;elevage;15/06/2021;1506E
PL267;M;numata;elevage;15/06/2021;1506F
PL268;F;silvana;elevage;15/06/2021;1506G
PL269;M;numata;elevage;15/06/2021;1506H
PL270;F;silvana;patawa;15/06/2021;1506Pa1
PL271;F;silvana;patawa;15/06/2021;1506Pa2
PL272;F;silvana;patawa;15/06/2021;1506Pa3
PL273;F;silvana;elevage;16/06/2021;1606A
PL274;M;silvana;elevage;16/06/2021;1606B
PL275;F;numata;elevage;16/06/2021;1606C
PL276;F;silvana;elevage;16/06/2021;1606D
PL277;M;numata;elevage;16/06/2021;1606E
PL278;F;numata;kaw;17/06/2021;1706Ka
PL279;F;numata;elevage;17/06/2021;1706A
PL280;F;silvana;elevage;17/06/2021;1706B
PL281;M;numata;elevage;17/06/2021;1706C
PL282;F;numata;elevage;18/06/2021;1806A
PL283;F;numata;elevage;18/06/2021;1806B
PL284;F;numata;elevage;18/06/2021;1806C
PL285;F;numata;elevage;18/06/2021;1806D
PL286;M;silvana;elevage;18/06/2021;1806E
PL287;F;numata;elevage;18/06/2021;1806F
PL288;F;numata;Montagne des singes;18/06/2021;1806Ms
PL289;M;silvana;elevage;21/06/2021;2106A
PL290;F;silvana;elevage;21/06/2021;2106B
PL291;F;numata;elevage;21/06/2021;2106C
PL292;F;numata;elevage;21/06/2021;2106D
PL293;F;silvana;elevage;21/06/2021;2106E
PL294;F;silvana;elevage;21/06/2021;2106F
PL295;M;numata;elevage;21/06/2021;2106G
PL296;F;numata;elevage;21/06/2021;2106H
PL297;M;numata;elevage;21/06/2021;2106I
PL298;F;numata;cacao;23/06/2021;2306Ca
PL299;F;numata;elevage;23/06/2021;2306A
PL300;F;numata;elevage;23/06/2021;2306B
PL301;F;silvana;elevage;25/06/2021;2506A
PL302;F;silvana;elevage;25/06/2021;2506B
PL303;M;silvana;elevage;25/06/2021;2506C
PL304;M;numata;elevage;30/06/2021;3006A
PL305;F;numata;elevage;30/06/2021;3006B
PL306;F;numata;elevage;30/06/2021;3006C
PL307;F;numata;elevage;30/06/2021;3006D
PL308;M;numata;elevage;30/06/2021;3006E
PL309;M;numata;elevage;30/06/2021;3006F
PL310;M;numata;elevage;01/07/2021;0107A
PL311;M;silvana;elevage;01/07/2021;0107B
PL312;M;silvana;kaw;01/07/2021;0107Ka1
PL313;F;numata;kaw;01/07/2021;0107Ka2
PL314;M;numata;elevage;02/07/2021;0207A
PL315;F;numata;elevage;02/07/2021;0207B
PL316;M;silvana;elevage;02/07/2021;0207C
PL317;F;numata;elevage;03/07/2021;0307A
PL318;M;numata;elevage;03/07/2021;0307B
PL319;F;numata;elevage;03/07/2021;0307C
PL320;F;silvana;elevage;06/07/2021;0607A
PL321;F;numata;elevage;06/07/2021;0607B
PL322;M;numata;elevage;06/07/2021;0607C
PL323;M;numata;elevage;06/07/2021;0607D
PL324;F;silvana;elevage;06/07/2021;0607E
PL325;M;silvana;elevage;06/07/2021;0607F
PL326;F;numata;elevage;06/07/2021;0607G
PL327;M;silvana;matoury;06/07/2021;0607Ma
PL328;M;numata;elevage;07/07/2021;0707A
PL329;F;silvana;elevage;07/07/2021;0707B
PL330;M;numata;elevage;08/07/2021;0807A
PL331;M;numata;elevage;11/07/2021;1107A
PL332;M;numata;elevage;11/07/2021;1107B
PL333;M;silvana;elevage;11/07/2021;1107C
PL334;F;silvana;elevage;11/07/2021;1107D
PL335;F;silvana;elevage;11/07/2021;1107E
PL336;F;silvana;elevage;12/07/2021;1207A
PL337;F;silvana;elevage;12/07/2021;1207B
PL338;M;silvana;elevage;12/07/2021;1207C
PL339;M;silvana;elevage;12/07/2021;1207D
PL340;M;numata;elevage;12/07/2021;1207E
PL341;F;silvana;elevage;13/07/2021;1307A
PL342;F;silvana;elevage;13/07/2021;1307B
PL343;F;numata;elevage;13/07/2021;1307C
PL344;F;numata;elevage;13/07/2021;1307D
PL345;M;numata;elevage;13/07/2021;1307E
PL346;F;numata;elevage;13/07/2021;1307F
PL347;F;numata;elevage;13/07/2021;1307G
PL348;F;silvana;elevage;13/07/2021;1307H
PL349;M;numata;elevage;14/07/2021;1407A
PL350;M;numata;elevage;15/07/2021;1507A
PL351;F;numata;elevage;15/07/2021;1507B
PL352;F;numata;elevage;16/07/2021;1607A
PL353;F;silvana;elevage;16/07/2021;1607A
PL354;M;numata;elevage;17/07/2021;1707A
PL355;F;numata;elevage;17/07/2021;1707B
PL356;F;numata;elevage;18/07/2021;1807A
PL357;F;silvana;elevage;19/07/2021;1907A
PL358;F;numata;elevage;19/07/2021;1907B
PL359;M;silvana;elevage;21/07/2021;2107A
PL360;M;silvana;elevage;21/07/2021;2107B
PL361;F;numata;elevage;21/07/2021;2107C
PL362;M;silvana;elevage;22/07/2021;2207A
PL363;F;silvana;elevage;22/07/2021;2207B
PL364;F;silvana;elevage;22/07/2021;2207C
PL365;M;silvana;elevage;23/07/2021;2307A
PL366;M;silvana;elevage;24/07/2021;2407A
PL367;F;silvana;elevage;24/07/2021;2407B
PL368;F;silvana;elevage;30/07/2021;3007A
PL369;M;silvana;elevage;30/07/2021;3007B
PL370;F;numata;elevage;30/07/2021;3007C
PL371;F;numata;elevage;30/07/2021;3007D
PL372;F;numata;elevage;30/07/2021;3007E
PL373;M;numata;elevage;30/07/2021;3007F
PL374;M;numata;elevage;30/07/2021;3007G
PL375;F;numata;elevage;30/07/2021;3007H
PL376;F;numata;elevage;30/07/2021;3007I
PL377;F;silvana;elevage;18/08/2021;1808A
PL378;M;numata;elevage;22/08/2021;2208A
PL379;M;silvana;elevage;24/08/2021;2408A
PL380;M;numata;elevage;26/08/2021;2608A
PL381;F;silvana;elevage;30/08/2021;3008A
